{
  "href": "https://api.spotify.com/v1/search?query=Way&type=track&offset=0&limit=1",
  "items": [
    {
      "album": {
        "album_type": "album",
        "artists": [
          {
            "external_urls": {
              "spotify": "https://open.spotify.com/artist/4O15NlyKLIASxsJ0PrXPfz"
            },
            "href": "https://api.spotify.com/v1/artists/4O15NlyKLIASxsJ0PrXPfz",
            "id": "4O15NlyKLIASxsJ0PrXPfz",
            "name": "Lil Uzi Vert",
            "type": "artist",
            "uri": "spotify:artist:4O15NlyKLIASxsJ0PrXPfz"
          }
        ],
        "available_markets": [
          "AD",
          "AR",
          "AT",
          "AU",
          "BE",
          "BG",
          "BO",
          "BR",
          "CA",
          "CH",
          "CL",
          "CO",
          "CR",
          "CY",
          "CZ",
          "DE",
          "DK",
          "DO",
          "EC",
          "EE",
          "ES",
          "FI",
          "FR",
          "GB",
          "GR",
          "GT",
          "HK",
          "HN",
          "HU",
          "ID",
          "IE",
          "IS",
          "IT",
          "JP",
          "LI",
          "LT",
          "LU",
          "LV",
          "MC",
          "MT",
          "MX",
          "MY",
          "NI",
          "NL",
          "NO",
          "NZ",
          "PA",
          "PE",
          "PH",
          "PL",
          "PT",
          "PY",
          "SE",
          "SG",
          "SK",
          "SV",
          "TH",
          "TR",
          "TW",
          "US",
          "UY"
        ],
        "external_urls": {
          "spotify": "https://open.spotify.com/album/733e1ZfktLSwj96X5rsMeE"
        },
        "href": "https://api.spotify.com/v1/albums/733e1ZfktLSwj96X5rsMeE",
        "id": "733e1ZfktLSwj96X5rsMeE",
        "images": [
          {
            "height": 640,
            "url": "https://i.scdn.co/image/0ea8577fe124691ddce00bccf9677b16166a21db",
            "width": 640
          },
          {
            "height": 300,
            "url": "https://i.scdn.co/image/ead73f726959b82d78c41d28ca41edfef92b1c87",
            "width": 300
          },
          {
            "height": 64,
            "url": "https://i.scdn.co/image/8bb4e383e30c9f5a938e40fe3d7f36a0dbd7d2f3",
            "width": 64
          }
        ],
        "name": "Luv Is Rage 2",
        "type": "album",
        "uri": "spotify:album:733e1ZfktLSwj96X5rsMeE"
      },
      "artists": [
        {
          "external_urls": {
            "spotify": "https://open.spotify.com/artist/4O15NlyKLIASxsJ0PrXPfz"
          },
          "href": "https://api.spotify.com/v1/artists/4O15NlyKLIASxsJ0PrXPfz",
          "id": "4O15NlyKLIASxsJ0PrXPfz",
          "name": "Lil Uzi Vert",
          "type": "artist",
          "uri": "spotify:artist:4O15NlyKLIASxsJ0PrXPfz"
        },
        {
          "external_urls": {
            "spotify": "https://open.spotify.com/artist/5cIc3SBFuBLVxJz58W2tU9"
          },
          "href": "https://api.spotify.com/v1/artists/5cIc3SBFuBLVxJz58W2tU9",
          "id": "5cIc3SBFuBLVxJz58W2tU9",
          "name": "Oh Wonder",
          "type": "artist",
          "uri": "spotify:artist:5cIc3SBFuBLVxJz58W2tU9"
        }
      ],
      "available_markets": [
        "AD",
        "AR",
        "AT",
        "AU",
        "BE",
        "BG",
        "BO",
        "BR",
        "CA",
        "CH",
        "CL",
        "CO",
        "CR",
        "CY",
        "CZ",
        "DE",
        "DK",
        "DO",
        "EC",
        "EE",
        "ES",
        "FI",
        "FR",
        "GB",
        "GR",
        "GT",
        "HK",
        "HN",
        "HU",
        "ID",
        "IE",
        "IS",
        "IT",
        "JP",
        "LI",
        "LT",
        "LU",
        "LV",
        "MC",
        "MT",
        "MX",
        "MY",
        "NI",
        "NL",
        "NO",
        "NZ",
        "PA",
        "PE",
        "PH",
        "PL",
        "PT",
        "PY",
        "SE",
        "SG",
        "SK",
        "SV",
        "TH",
        "TR",
        "TW",
        "US",
        "UY"
      ],
      "disc_number": 1,
      "duration_ms": 221746,
      "explicit": true,
      "external_ids": {
        "isrc": "USAT21703429"
      },
      "external_urls": {
        "spotify": "https://open.spotify.com/track/2eAZfqOm4EnOF9VvN50Tyc"
      },
      "href": "https://api.spotify.com/v1/tracks/2eAZfqOm4EnOF9VvN50Tyc",
      "id": "2eAZfqOm4EnOF9VvN50Tyc",
      "name": "The Way Life Goes (feat. Oh Wonder)",
      "popularity": 87,
      "preview_url": "https://p.scdn.co/mp3-preview/4d282cabd448444f2618fdb05302bc1cd8ecc64e?cid=8457e1d1133942789c5a8f1fd6b64ef5",
      "track_number": 5,
      "type": "track",
      "uri": "spotify:track:2eAZfqOm4EnOF9VvN50Tyc"
    }
  ],
  "limit": 1,
  "next": "https://api.spotify.com/v1/search?query=Way&type=track&offset=1&limit=1",
  "offset": 0,
  "previous": null,
  "total": 298382
}
